<?xml version="1.0" encoding="utf-8"?>
<!-- Generator: Adobe Illustrator 24.0.2, SVG Export Plug-In . SVG Version: 6.00 Build 0)  -->
<svg version="1.1" id="Capa_1" xmlns="http://www.w3.org/2000/svg" xmlns:xlink="http://www.w3.org/1999/xlink" x="0px" y="0px"
	 viewBox="0 0 40 40" style="enable-background:new 0 0 40 40;" xml:space="preserve">
<style type="text/css">
	.st0{fill:#fff;}
</style>
<g>
	<path class="st0" d="M39.1459,31.6381l-6.1914-6.1921c-1.2332-1.2283-3.2754-1.1909-4.5516,0.0857l-3.1192,3.1185
		c-0.1971-0.1086-0.401-0.2221-0.6155-0.3424c-1.9698-1.0914-4.6657-2.5874-7.5027-5.4264
		c-2.8453-2.845-4.3427-5.5451-5.4374-7.5161c-0.1155-0.2088-0.2262-0.4101-0.3355-0.6013l2.0935-2.0904l1.0292-1.0305
		c1.2781-1.2785,1.3134-3.3201,0.083-4.5519L8.407,0.8984C7.1767-0.3317,5.1335-0.2943,3.8554,0.9841l-1.7449,1.755l0.0477,0.0473
		C1.573,3.533,1.0841,4.3941,0.7203,5.3226C0.3849,6.2065,0.176,7.05,0.0806,7.8951c-0.8175,6.7775,2.2796,12.9716,10.6848,21.377
		c11.6185,11.6177,20.9816,10.7401,21.3855,10.6972c0.8797-0.1052,1.7228-0.3154,2.5796-0.6481
		c0.9205-0.3596,1.781-0.8478,2.5271-1.4317l0.0381,0.0339l1.7677-1.731C40.3389,34.9142,40.3757,32.8719,39.1459,31.6381
		L39.1459,31.6381z"/>
</g>
</svg>
