<?xml version="1.0" encoding="utf-8"?>
<!-- Generator: Adobe Illustrator 23.0.1, SVG Export Plug-In . SVG Version: 6.00 Build 0)  -->
<svg version="1.1" id="Capa_1" xmlns="http://www.w3.org/2000/svg" xmlns:xlink="http://www.w3.org/1999/xlink" x="0px" y="0px"
	 width="1501.6993px" height="291.0423px" viewBox="0 0 1501.6993 291.0423" style="enable-background:new 0 0 1501.6993 291.0423;"
	 xml:space="preserve">
<style type="text/css">
	.st0{fill:#00C2D8;}
	.st1{fill:#FFFFFF;}
	.st2{fill:#DDF9FB;}
	.st3{fill:#AFAEAE;}
	.st4{fill:#1FBDD2;}
	.st5{fill:#60C8E5;}
	.st6{fill:#EC372C;}
	.st7{fill:#4A4F54;}
	.st8{fill:#7BBF42;}
	.st9{fill:#4B4E53;}
	.st10{fill:#EAECED;}
	.st11{fill:#69469A;}
	.st12{fill:#EFD8B6;}
	.st13{fill:#00BED6;}
	.st14{fill:#D5E3DC;}
	.st15{fill:#3D4039;}
	.st16{fill:none;stroke:#D5E3DC;stroke-miterlimit:10;}
	.st17{fill:#00C1D7;}
	.st18{fill:#2A2A29;}
	.st19{opacity:0.6;}
	.st20{clip-path:url(#SVGID_2_);fill:#62C6D0;}
	.st21{fill:#F1901E;}
	.st22{clip-path:url(#SVGID_4_);fill:#62C6D0;}
	.st23{clip-path:url(#SVGID_6_);fill:#62C6D0;}
	.st24{fill:#9DCFE2;}
	.st25{fill:#434443;}
	.st26{fill:#DFE8EE;}
	.st27{clip-path:url(#SVGID_8_);fill:#62C6D0;}
	.st28{clip-path:url(#SVGID_10_);fill:#2A2A29;}
	.st29{opacity:0.8;}
	.st30{clip-path:url(#SVGID_12_);fill:#2C3087;}
	.st31{clip-path:url(#SVGID_14_);fill:#EFF0F0;}
	.st32{clip-path:url(#SVGID_16_);fill:#EFF0F0;}
	.st33{clip-path:url(#SVGID_18_);fill:#EFF0F0;}
	.st34{clip-path:url(#SVGID_20_);fill:#EFF0F0;}
	.st35{clip-path:url(#SVGID_22_);fill:#FFFFFF;}
	.st36{clip-path:url(#SVGID_24_);fill:#3B3944;}
	.st37{fill:#F06721;}
	.st38{fill:#FBB318;}
	.st39{fill:#FFB71B;}
	.st40{fill:#CED2D4;}
	.st41{fill:#00C4D6;}
	.st42{fill:#F2F3F3;}
	.st43{fill:#A2EFF5;}
	.st44{clip-path:url(#SVGID_26_);fill:#62C6D0;}
	.st45{clip-path:url(#SVGID_28_);fill:#62C6D0;}
	.st46{clip-path:url(#SVGID_30_);fill:#62C6D0;}
	.st47{clip-path:url(#SVGID_32_);fill:#62C6D0;}
	.st48{clip-path:url(#SVGID_34_);fill:#2A2A29;}
	.st49{clip-path:url(#SVGID_36_);fill:#2C3087;}
	.st50{clip-path:url(#SVGID_38_);fill:#EFF0F0;}
	.st51{clip-path:url(#SVGID_40_);fill:#EFF0F0;}
	.st52{clip-path:url(#SVGID_42_);fill:#EFF0F0;}
	.st53{clip-path:url(#SVGID_44_);fill:#EFF0F0;}
</style>
<g>
	<circle class="st40" cx="105.6401" cy="244.1622" r="2.2616"/>
	<circle class="st40" cx="342.1753" cy="226.9227" r="2.2616"/>
	<circle class="st40" cx="511.1475" cy="168.7819" r="2.2616"/>
	<circle class="st40" cx="974.6489" cy="117.9931" r="2.2616"/>
	<circle class="st40" cx="1297.3813" cy="6.1903" r="2.2616"/>
	<circle class="st40" cx="1394.4799" cy="25.4579" r="2.2616"/>
	<circle class="st40" cx="587.9694" cy="189.1531" r="3.0272"/>
	<circle class="st40" cx="103.3785" cy="6.0694" r="2.2616"/>
	<circle class="st40" cx="200.4771" cy="24.9939" r="2.2616"/>
	<circle class="st40" cx="386.0545" cy="90.1488" r="2.2616"/>
	<circle class="st40" cx="605.753" cy="125.5655" r="4.6925"/>
	<circle class="st40" cx="465.8093" cy="270.7087" r="4.6925"/>
	<circle class="st40" cx="901.9628" cy="144.2001" r="4.6925"/>
	<circle class="st40" cx="1066.2445" cy="270.9606" r="4.6925"/>
	<circle class="st40" cx="1316.3854" cy="212.7525" r="4.6925"/>
	<circle class="st40" cx="1494.5262" cy="144.1328" r="4.6925"/>
	<circle class="st41" cx="40.4035" cy="264.3827" r="4.7388"/>
	<circle class="st42" cx="4.7388" cy="127.8966" r="4.7388"/>
	<circle class="st43" cx="40.4035" cy="27.594" r="4.8617"/>
	<circle class="st43" cx="263.4651" cy="44.8334" r="4.8617"/>
	<circle class="st43" cx="40.4035" cy="264.3827" r="4.8617"/>
	<circle class="st43" cx="516.0092" cy="211.9437" r="4.8617"/>
	<circle class="st43" cx="558.6007" cy="125.3963" r="4.8617"/>
	<circle class="st43" cx="1234.8829" cy="26.4731" r="4.8617"/>
	<circle class="st43" cx="641.2486" cy="265.847" r="4.8617"/>
	<circle class="st43" cx="863.8401" cy="283.5935" r="4.8617"/>
	<circle class="st43" cx="1115.8401" cy="212.7525" r="4.8617"/>
	<circle class="st43" cx="994.6328" cy="188.2213" r="3.3164"/>
	<circle class="st43" cx="1419.0272" cy="223.2072" r="3.3164"/>
	<circle class="st43" cx="825.9568" cy="223.0382" r="3.3164"/>
	<circle class="st43" cx="679.5906" cy="205.1227" r="3.3164"/>
	<circle class="st43" cx="1159.4458" cy="126.8675" r="4.8617"/>
	<circle class="st43" cx="1234.8829" cy="26.4731" r="4.8617"/>
	<circle class="st43" cx="1456.6294" cy="45.4027" r="4.8617"/>
	<circle class="st43" cx="1159.4458" cy="126.8675" r="4.8617"/>
	<circle class="st43" cx="863.8401" cy="283.5935" r="4.8617"/>
	<circle class="st43" cx="1456.6294" cy="283.5935" r="4.8617"/>
	<circle class="st41" cx="78.5311" cy="203.3812" r="2.9626"/>
	<circle class="st41" cx="393.4574" cy="188.6694" r="2.9626"/>
</g>
</svg>
